EESchema Schematic File Version 2
LIBS:power
LIBS:device
LIBS:transistors
LIBS:conn
LIBS:linear
LIBS:regul
LIBS:74xx
LIBS:cmos4000
LIBS:adc-dac
LIBS:memory
LIBS:xilinx
LIBS:microcontrollers
LIBS:dsp
LIBS:microchip
LIBS:analog_switches
LIBS:motorola
LIBS:texas
LIBS:intel
LIBS:audio
LIBS:interface
LIBS:digital-audio
LIBS:philips
LIBS:display
LIBS:cypress
LIBS:siliconi
LIBS:opto
LIBS:atmel
LIBS:contrib
LIBS:valves
LIBS:stm32
LIBS:lph7366
LIBS:clock
LIBS:handler
LIBS:radio
LIBS:esdprot
LIBS:sdcard
LIBS:iface
LIBS:motor
LIBS:project-cache
EELAYER 25 0
EELAYER END
$Descr A4 11693 8268
encoding utf-8
Sheet 1 1
Title ""
Date ""
Rev ""
Comp ""
Comment1 ""
Comment2 ""
Comment3 ""
Comment4 ""
$EndDescr
$Comp
L STM32F103RBT6 D1
U 1 1 56F51735
P 3100 2500
F 0 "D1" H 3100 4300 60  0000 C CNN
F 1 "STM32F103RBT6" H 3100 700 60  0000 C CNN
F 2 "Local:LQFP-64_10x10mm_Pitch0.5mm" H 3100 2500 60  0001 C CNN
F 3 "" H 3100 2500 60  0000 C CNN
	1    3100 2500
	1    0    0    -1  
$EndComp
$Comp
L GND #PWR01
U 1 1 56F51851
P 1400 4200
F 0 "#PWR01" H 1400 3950 50  0001 C CNN
F 1 "GND" H 1400 4050 50  0000 C CNN
F 2 "" H 1400 4200 60  0000 C CNN
F 3 "" H 1400 4200 60  0000 C CNN
	1    1400 4200
	1    0    0    -1  
$EndComp
Text GLabel 1200 3300 0    47   Input ~ 0
3V3A
$Comp
L +3V3 #PWR02
U 1 1 56F51910
P 1100 4000
F 0 "#PWR02" H 1100 3850 50  0001 C CNN
F 1 "+3V3" H 1100 4140 50  0000 C CNN
F 2 "" H 1100 4000 60  0000 C CNN
F 3 "" H 1100 4000 60  0000 C CNN
	1    1100 4000
	1    0    0    -1  
$EndComp
$Comp
L LPH7366 D3
U 1 1 572BF734
P 2100 6300
F 0 "D3" H 2100 6850 60  0000 C CNN
F 1 "LPH7366" V 2200 6500 60  0000 C CNN
F 2 "Local:LPH-7366" H 1900 6200 60  0001 C CNN
F 3 "" H 1900 6200 60  0000 C CNN
	1    2100 6300
	1    0    0    -1  
$EndComp
$Comp
L +3V3 #PWR03
U 1 1 572BF742
P 1100 5800
F 0 "#PWR03" H 1100 5650 60  0001 C CNN
F 1 "+3V3" H 1100 5940 60  0000 C CNN
F 2 "" H 1100 5800 60  0000 C CNN
F 3 "" H 1100 5800 60  0000 C CNN
	1    1100 5800
	1    0    0    -1  
$EndComp
$Comp
L C C15
U 1 1 572BF748
P 1200 6950
F 0 "C15" H 1250 7050 50  0000 L CNN
F 1 "100n" H 1250 6850 50  0000 L CNN
F 2 "Local:C_0603" H 1238 6800 30  0001 C CNN
F 3 "" H 1200 6950 60  0000 C CNN
	1    1200 6950
	1    0    0    -1  
$EndComp
$Comp
L GND #PWR04
U 1 1 572BF75E
P 800 6400
F 0 "#PWR04" H 800 6150 60  0001 C CNN
F 1 "GND" H 800 6250 60  0000 C CNN
F 2 "" H 800 6400 60  0000 C CNN
F 3 "" H 800 6400 60  0000 C CNN
	1    800  6400
	1    0    0    -1  
$EndComp
$Comp
L LED D4
U 1 1 572BF778
P 2900 6600
F 0 "D4" H 2900 6700 50  0000 C CNN
F 1 "LED" H 2900 6500 50  0000 C CNN
F 2 "Local:LED_0603" H 2900 6600 60  0001 C CNN
F 3 "" H 2900 6600 60  0000 C CNN
	1    2900 6600
	0    -1   -1   0   
$EndComp
$Comp
L LED D5
U 1 1 572BF77F
P 3300 6600
F 0 "D5" H 3300 6700 50  0000 C CNN
F 1 "LED" H 3300 6500 50  0000 C CNN
F 2 "Local:LED_0603" H 3300 6600 60  0001 C CNN
F 3 "" H 3300 6600 60  0000 C CNN
	1    3300 6600
	0    -1   -1   0   
$EndComp
$Comp
L LED D6
U 1 1 572BF786
P 3700 6600
F 0 "D6" H 3700 6700 50  0000 C CNN
F 1 "LED" H 3700 6500 50  0000 C CNN
F 2 "Local:LED_0603" H 3700 6600 60  0001 C CNN
F 3 "" H 3700 6600 60  0000 C CNN
	1    3700 6600
	0    -1   -1   0   
$EndComp
$Comp
L LED D7
U 1 1 572BF78D
P 4100 6600
F 0 "D7" H 4100 6700 50  0000 C CNN
F 1 "LED" H 4100 6500 50  0000 C CNN
F 2 "Local:LED_0603" H 4100 6600 60  0001 C CNN
F 3 "" H 4100 6600 60  0000 C CNN
	1    4100 6600
	0    -1   -1   0   
$EndComp
$Comp
L R R15
U 1 1 572BF794
P 2900 6150
F 0 "R15" V 2980 6150 50  0000 C CNN
F 1 "50" V 2907 6151 50  0000 C CNN
F 2 "Local:R_0603" V 2830 6150 30  0001 C CNN
F 3 "" H 2900 6150 30  0000 C CNN
	1    2900 6150
	-1   0    0    1   
$EndComp
$Comp
L R R16
U 1 1 572BF7A6
P 3300 6150
F 0 "R16" V 3380 6150 50  0000 C CNN
F 1 "50" V 3307 6151 50  0000 C CNN
F 2 "Local:R_0603" V 3230 6150 30  0001 C CNN
F 3 "" H 3300 6150 30  0000 C CNN
	1    3300 6150
	-1   0    0    1   
$EndComp
$Comp
L R R17
U 1 1 572BF7AD
P 3700 6150
F 0 "R17" V 3780 6150 50  0000 C CNN
F 1 "50" V 3707 6151 50  0000 C CNN
F 2 "Local:R_0603" V 3630 6150 30  0001 C CNN
F 3 "" H 3700 6150 30  0000 C CNN
	1    3700 6150
	-1   0    0    1   
$EndComp
$Comp
L R R18
U 1 1 572BF7B4
P 4100 6150
F 0 "R18" V 4180 6150 50  0000 C CNN
F 1 "50" V 4107 6151 50  0000 C CNN
F 2 "Local:R_0603" V 4030 6150 30  0001 C CNN
F 3 "" H 4100 6150 30  0000 C CNN
	1    4100 6150
	-1   0    0    1   
$EndComp
$Comp
L Q_NPN_BEC Q1
U 1 1 572BF7C8
P 3400 7200
F 0 "Q1" H 3400 7051 40  0000 R CNN
F 1 "MMBT3904" H 3400 7350 40  0000 R CNN
F 2 "Local:SOT-23" H 3300 7302 29  0001 C CNN
F 3 "" H 3400 7200 60  0000 C CNN
	1    3400 7200
	1    0    0    -1  
$EndComp
$Comp
L GND #PWR05
U 1 1 572BF7D2
P 3500 7500
F 0 "#PWR05" H 3500 7250 60  0001 C CNN
F 1 "GND" H 3500 7350 60  0000 C CNN
F 2 "" H 3500 7500 60  0000 C CNN
F 3 "" H 3500 7500 60  0000 C CNN
	1    3500 7500
	1    0    0    -1  
$EndComp
$Comp
L +3V3 #PWR06
U 1 1 572BF7D8
P 3500 5800
F 0 "#PWR06" H 3500 5650 60  0001 C CNN
F 1 "+3V3" H 3500 5940 60  0000 C CNN
F 2 "" H 3500 5800 60  0000 C CNN
F 3 "" H 3500 5800 60  0000 C CNN
	1    3500 5800
	1    0    0    -1  
$EndComp
$Comp
L R R21
U 1 1 572BF7EB
P 2950 7200
F 0 "R21" V 3030 7200 50  0000 C CNN
F 1 "1K" V 2957 7201 50  0000 C CNN
F 2 "Local:R_0603" V 2880 7200 30  0001 C CNN
F 3 "" H 2950 7200 30  0000 C CNN
	1    2950 7200
	0    -1   -1   0   
$EndComp
Text Notes 750  7600 0    60   ~ 0
R2-R4 is 0R for white, blue LEDs\nBacklight can be dimmed using PWM
$Comp
L GND #PWR07
U 1 1 572C0525
P 1200 7200
F 0 "#PWR07" H 1200 6950 60  0001 C CNN
F 1 "GND" H 1200 7050 60  0000 C CNN
F 2 "" H 1200 7200 60  0000 C CNN
F 3 "" H 1200 7200 60  0000 C CNN
	1    1200 7200
	1    0    0    -1  
$EndComp
$Comp
L GND #PWR08
U 1 1 572C0806
P 1000 7200
F 0 "#PWR08" H 1000 6950 60  0001 C CNN
F 1 "GND" H 1000 7050 60  0000 C CNN
F 2 "" H 1000 7200 60  0000 C CNN
F 3 "" H 1000 7200 60  0000 C CNN
	1    1000 7200
	1    0    0    -1  
$EndComp
$Comp
L C C12
U 1 1 572C0A05
P 800 6150
F 0 "C12" H 850 6250 50  0000 L CNN
F 1 "100n" H 850 6050 50  0000 L CNN
F 2 "Local:C_0603" H 838 6000 30  0001 C CNN
F 3 "" H 800 6150 60  0000 C CNN
	1    800  6150
	1    0    0    -1  
$EndComp
Text GLabel 1600 6000 0    47   Input ~ 0
LCD_SCLK
Text GLabel 1600 6100 0    47   Input ~ 0
LCD_MOSI
Text GLabel 1600 6200 0    47   Input ~ 0
LCD_D~C
Text GLabel 1600 6300 0    47   Input ~ 0
~LCD_NSS
Text GLabel 1600 6700 0    47   Input ~ 0
~LCD_RES
$Comp
L EC11E E1
U 1 1 572C5512
P 2200 5100
F 0 "E1" H 2000 5350 60  0000 C CNN
F 1 "EC11E" H 2200 4850 60  0000 C CNN
F 2 "Local:EC11E" H 2250 5100 60  0001 C CNN
F 3 "" H 2250 5100 60  0000 C CNN
	1    2200 5100
	1    0    0    -1  
$EndComp
Text GLabel 1600 5000 0    47   Input ~ 0
~ENC_A
Text GLabel 1600 5200 0    47   Input ~ 0
~ENC_B
Text GLabel 2700 5000 2    47   Input ~ 0
~ENC_E
$Comp
L GND #PWR09
U 1 1 572C63CF
P 1700 5300
F 0 "#PWR09" H 1700 5050 60  0001 C CNN
F 1 "GND" H 1700 5150 60  0000 C CNN
F 2 "" H 1700 5300 60  0000 C CNN
F 3 "" H 1700 5300 60  0000 C CNN
	1    1700 5300
	1    0    0    -1  
$EndComp
$Comp
L GND #PWR010
U 1 1 572C648B
P 2700 5300
F 0 "#PWR010" H 2700 5050 60  0001 C CNN
F 1 "GND" H 2700 5150 60  0000 C CNN
F 2 "" H 2700 5300 60  0000 C CNN
F 3 "" H 2700 5300 60  0000 C CNN
	1    2700 5300
	1    0    0    -1  
$EndComp
Text GLabel 4800 1300 2    47   Input ~ 0
~ENC_A
Text GLabel 4800 3900 2    47   Input ~ 0
LCD_SCLK
Text GLabel 4800 4100 2    47   Input ~ 0
LCD_MOSI
Text GLabel 4800 4000 2    47   Input ~ 0
LCD_D~C
Text GLabel 4800 3800 2    47   Input ~ 0
~LCD_NSS
$Comp
L GND #PWR011
U 1 1 572CB5FB
P 800 5400
F 0 "#PWR011" H 800 5150 60  0001 C CNN
F 1 "GND" H 800 5250 60  0000 C CNN
F 2 "" H 800 5400 60  0000 C CNN
F 3 "" H 800 5400 60  0000 C CNN
	1    800  5400
	1    0    0    -1  
$EndComp
$Comp
L C C11
U 1 1 572CB601
P 800 5150
F 0 "C11" H 850 5250 50  0000 L CNN
F 1 "100n" H 850 5050 50  0000 L CNN
F 2 "Local:C_0603" H 838 5000 30  0001 C CNN
F 3 "" H 800 5150 60  0000 C CNN
	1    800  5150
	1    0    0    -1  
$EndComp
Text GLabel 800  4900 1    47   Input ~ 0
RESET
Text GLabel 1200 3000 0    47   Input ~ 0
RESET
Text GLabel 4800 3700 2    47   Input ~ 0
~LCD_RES
Text GLabel 1400 2200 0    47   Input ~ 0
SWDIO
Text GLabel 1400 2300 0    47   Input ~ 0
SWCLK
Text GLabel 4800 1400 2    47   Input ~ 0
~ENC_B
Text GLabel 4800 2600 2    47   Input ~ 0
~ENC_E
Text GLabel 1400 2000 0    47   Input ~ 0
USB_DM
Text GLabel 1400 2100 0    47   Input ~ 0
USB_DP
Text GLabel 1400 2400 0    47   Input ~ 0
USB_CON
Text GLabel 1400 2600 0    47   Input ~ 0
OSC_IN
Text GLabel 1400 2700 0    47   Input ~ 0
OSC_OUT
Text GLabel 4600 4800 1    47   Input ~ 0
OSC_IN
Text GLabel 5100 4800 1    47   Input ~ 0
OSC_OUT
$Comp
L Crystal Y1
U 1 1 572D32A3
P 4850 5200
F 0 "Y1" H 4850 5350 50  0000 C CNN
F 1 "8MHz" H 4850 5050 50  0000 C CNN
F 2 "Local:Crystal_HC49-U_Vertical" H 4850 5200 60  0001 C CNN
F 3 "" H 4850 5200 60  0000 C CNN
	1    4850 5200
	1    0    0    -1  
$EndComp
$Comp
L C C9
U 1 1 572D3810
P 4600 5450
F 0 "C9" H 4625 5550 50  0000 L CNN
F 1 "27p" H 4625 5350 50  0000 L CNN
F 2 "Local:C_0603" H 4638 5300 30  0001 C CNN
F 3 "" H 4600 5450 60  0000 C CNN
	1    4600 5450
	1    0    0    -1  
$EndComp
$Comp
L C C10
U 1 1 572D3DA3
P 5100 5450
F 0 "C10" H 5125 5550 50  0000 L CNN
F 1 "27p" H 5125 5350 50  0000 L CNN
F 2 "Local:C_0603" H 5138 5300 30  0001 C CNN
F 3 "" H 5100 5450 60  0000 C CNN
	1    5100 5450
	1    0    0    -1  
$EndComp
$Comp
L GND #PWR012
U 1 1 572D43C7
P 5100 5700
F 0 "#PWR012" H 5100 5450 50  0001 C CNN
F 1 "GND" H 5100 5550 50  0000 C CNN
F 2 "" H 5100 5700 60  0000 C CNN
F 3 "" H 5100 5700 60  0000 C CNN
	1    5100 5700
	1    0    0    -1  
$EndComp
$Comp
L GND #PWR013
U 1 1 572D448F
P 4600 5700
F 0 "#PWR013" H 4600 5450 50  0001 C CNN
F 1 "GND" H 4600 5550 50  0000 C CNN
F 2 "" H 4600 5700 60  0000 C CNN
F 3 "" H 4600 5700 60  0000 C CNN
	1    4600 5700
	1    0    0    -1  
$EndComp
$Comp
L R R9
U 1 1 572D481D
P 4850 4900
F 0 "R9" V 4930 4900 50  0000 C CNN
F 1 "1M" V 4857 4901 50  0000 C CNN
F 2 "Local:R_0603" V 4780 4900 30  0001 C CNN
F 3 "" H 4850 4900 30  0000 C CNN
	1    4850 4900
	0    -1   -1   0   
$EndComp
Text GLabel 2700 7200 0    47   Input ~ 0
LCD_BLC
Text GLabel 1400 1700 0    47   Input ~ 0
LCD_BLC
Text GLabel 4800 900  2    47   Input ~ 0
BOX_LHT
Wire Wire Line
	4700 1100 4800 1100
Wire Wire Line
	4700 900  4800 900 
Wire Wire Line
	4700 1000 4800 1000
Wire Wire Line
	1500 1000 1400 1000
Connection ~ 1300 4100
Wire Wire Line
	1100 4100 1100 4000
Wire Wire Line
	1500 3300 1200 3300
Connection ~ 1300 3700
Wire Wire Line
	1500 3500 1300 3500
Connection ~ 1300 3900
Wire Wire Line
	1300 3700 1500 3700
Wire Wire Line
	1300 3900 1500 3900
Wire Wire Line
	1300 3100 1300 4100
Wire Wire Line
	1100 4100 1500 4100
Connection ~ 1400 3400
Wire Wire Line
	1500 3200 1400 3200
Connection ~ 1400 3600
Wire Wire Line
	1400 3400 1500 3400
Connection ~ 1400 3800
Wire Wire Line
	1400 3600 1500 3600
Connection ~ 1400 4000
Wire Wire Line
	1400 3800 1500 3800
Wire Wire Line
	1400 4000 1500 4000
Wire Wire Line
	1400 2900 1400 4200
Wire Wire Line
	4700 1200 4800 1200
Wire Wire Line
	4700 1300 4800 1300
Wire Wire Line
	4700 1400 4800 1400
Wire Wire Line
	1500 1700 1400 1700
Wire Wire Line
	4800 2600 4700 2600
Wire Wire Line
	4800 2700 4700 2700
Wire Wire Line
	4800 3200 4700 3200
Wire Wire Line
	4800 3300 4700 3300
Wire Wire Line
	800  5900 1700 5900
Wire Wire Line
	1100 5800 1100 6400
Wire Wire Line
	1700 6600 1200 6600
Wire Wire Line
	1200 6600 1200 6800
Connection ~ 1100 5900
Wire Wire Line
	1600 6000 1700 6000
Wire Wire Line
	1600 6100 1700 6100
Wire Wire Line
	1600 6200 1700 6200
Wire Wire Line
	1600 6300 1700 6300
Wire Wire Line
	2900 6800 2900 6900
Wire Wire Line
	2900 6900 4100 6900
Wire Wire Line
	3300 6900 3300 6800
Wire Wire Line
	3700 6900 3700 6800
Connection ~ 3300 6900
Wire Wire Line
	4100 6900 4100 6800
Connection ~ 3700 6900
Wire Wire Line
	2900 6300 2900 6400
Wire Wire Line
	3300 6300 3300 6400
Wire Wire Line
	3700 6300 3700 6400
Wire Wire Line
	4100 6300 4100 6400
Wire Wire Line
	2900 6000 2900 5900
Wire Wire Line
	2900 5900 4100 5900
Wire Wire Line
	3300 5900 3300 6000
Wire Wire Line
	3700 5900 3700 6000
Connection ~ 3300 5900
Wire Wire Line
	4100 5900 4100 6000
Connection ~ 3700 5900
Wire Wire Line
	3500 7000 3500 6900
Connection ~ 3500 6900
Wire Wire Line
	3500 7400 3500 7500
Wire Wire Line
	3500 5800 3500 5900
Connection ~ 3500 5900
Wire Wire Line
	2800 7200 2700 7200
Wire Wire Line
	3200 7200 3100 7200
Wire Wire Line
	1100 6400 1700 6400
Wire Wire Line
	1200 7100 1200 7200
Wire Wire Line
	1700 6500 1000 6500
Wire Wire Line
	1000 6500 1000 7200
Wire Wire Line
	800  6300 800  6400
Wire Wire Line
	800  5900 800  6000
Wire Wire Line
	1600 5000 1800 5000
Wire Wire Line
	1600 5200 1800 5200
Wire Wire Line
	2600 5200 2700 5200
Wire Wire Line
	2700 5100 2700 5300
Wire Wire Line
	1800 5100 1700 5100
Wire Wire Line
	1700 5100 1700 5300
Wire Wire Line
	2600 5000 2700 5000
Wire Wire Line
	4800 3600 4700 3600
Wire Wire Line
	4800 3700 4700 3700
Wire Wire Line
	4800 3900 4700 3900
Wire Wire Line
	4800 3800 4700 3800
Wire Wire Line
	4800 4100 4700 4100
Wire Wire Line
	4800 4000 4700 4000
Wire Wire Line
	800  5300 800  5400
Wire Wire Line
	800  5000 800  4900
Wire Wire Line
	1500 3000 1200 3000
Wire Wire Line
	1500 3100 1300 3100
Connection ~ 1300 3500
Wire Wire Line
	1500 2900 1400 2900
Connection ~ 1400 3200
Wire Wire Line
	4800 3500 4700 3500
Wire Wire Line
	1500 2200 1400 2200
Wire Wire Line
	1500 2300 1400 2300
Wire Wire Line
	1500 1300 1400 1300
Wire Wire Line
	1500 1400 1400 1400
Wire Wire Line
	1500 1500 1400 1500
Wire Wire Line
	1500 1600 1400 1600
Wire Wire Line
	1500 1100 1400 1100
Wire Wire Line
	1500 1200 1400 1200
Wire Wire Line
	1500 1800 1400 1800
Wire Wire Line
	1500 1900 1400 1900
Wire Wire Line
	1500 2000 1400 2000
Wire Wire Line
	1500 2100 1400 2100
Wire Wire Line
	1500 2400 1400 2400
Wire Wire Line
	1500 2600 1400 2600
Wire Wire Line
	1500 2700 1400 2700
Wire Wire Line
	4600 4800 4600 5300
Wire Wire Line
	4600 5200 4700 5200
Wire Wire Line
	5100 4800 5100 5300
Wire Wire Line
	5100 5200 5000 5200
Connection ~ 5100 5200
Connection ~ 4600 5200
Wire Wire Line
	4600 5600 4600 5700
Wire Wire Line
	5100 5600 5100 5700
Wire Wire Line
	5100 4900 5000 4900
Connection ~ 5100 4900
Wire Wire Line
	4700 4900 4600 4900
Connection ~ 4600 4900
Wire Wire Line
	4800 2900 4700 2900
Wire Wire Line
	4800 2800 4700 2800
Wire Wire Line
	4800 1500 4700 1500
Wire Wire Line
	4800 1600 4700 1600
Wire Wire Line
	4800 1700 4700 1700
Wire Wire Line
	4800 1800 4700 1800
Wire Wire Line
	4800 1900 4700 1900
Wire Wire Line
	1500 900  1400 900 
Wire Wire Line
	4800 3400 4700 3400
Wire Wire Line
	4800 2000 4700 2000
Wire Wire Line
	4800 2100 4700 2100
Wire Wire Line
	4800 3000 4700 3000
Wire Wire Line
	4800 3100 4700 3100
$Comp
L ULN2003A U4
U 1 1 57576C54
P 8250 1400
F 0 "U4" H 8250 1950 70  0000 C CNN
F 1 "ULN2003A" V 8250 1400 70  0000 C CNN
F 2 "Local:SOIC-16_3.9x9.9mm_Pitch1.27mm" H 8250 1400 60  0001 C CNN
F 3 "" H 8250 1400 60  0000 C CNN
	1    8250 1400
	1    0    0    -1  
$EndComp
Wire Wire Line
	4700 2300 4800 2300
Wire Wire Line
	4800 2400 4700 2400
Wire Wire Line
	4700 2200 4800 2200
Wire Wire Line
	1700 6700 1600 6700
Wire Wire Line
	1500 2800 1400 2800
Text Notes 5550 4300 0    60   ~ 0
EXT_IRQs\n\nPB0: ~ENC_A\nPB1: ~ENC_B\nPB2: ~ENC_E\n\nPA15: USB_DET
$Comp
L 28BYJ-48 P1
U 1 1 57DCB1E3
P 10200 1400
F 0 "P1" H 10200 1950 60  0000 C CNN
F 1 "28BYJ-48" H 10200 850 60  0000 C CNN
F 2 "Local:Pin_Header_Straight_1x05" H 9750 1400 60  0001 C CNN
F 3 "" H 9750 1400 60  0000 C CNN
	1    10200 1400
	1    0    0    -1  
$EndComp
Text Notes 5550 3450 0    60   ~ 0
SPI2: LCD\n\nTIM1_CH1: LCD_BLC\n\nTIM3 - REMAP!\nTIM3_CH3: VALVE1\nTIM3_CH4: VALVE2\n\nTIM4_CH3: LIGHT1\nTIM4_CH4: LIGHT2
$Comp
L D_Schottky D2
U 1 1 57DCDE46
P 9150 1800
F 0 "D2" H 9150 1900 50  0000 C CNN
F 1 "SS14" H 9150 1700 50  0000 C CNN
F 2 "Local:SMA_Standard" H 9150 1800 50  0001 C CNN
F 3 "" H 9150 1800 50  0000 C CNN
	1    9150 1800
	1    0    0    -1  
$EndComp
Wire Wire Line
	9000 1800 8900 1800
Wire Wire Line
	9300 1800 9500 1800
Wire Wire Line
	9400 1800 9400 900 
Connection ~ 9400 1800
$Comp
L +5V #PWR014
U 1 1 57DCE57E
P 9400 900
F 0 "#PWR014" H 9400 750 50  0001 C CNN
F 1 "+5V" H 9400 1040 50  0000 C CNN
F 2 "" H 9400 900 50  0000 C CNN
F 3 "" H 9400 900 50  0000 C CNN
	1    9400 900 
	1    0    0    -1  
$EndComp
Wire Wire Line
	9500 1000 8900 1000
Wire Wire Line
	9500 1200 8900 1200
Wire Wire Line
	9500 1400 8900 1400
Wire Wire Line
	9500 1600 8900 1600
Wire Wire Line
	8900 1100 9000 1100
Wire Wire Line
	8900 1300 9000 1300
Wire Wire Line
	8900 1500 9000 1500
NoConn ~ 9000 1100
NoConn ~ 9000 1300
NoConn ~ 9000 1500
Wire Wire Line
	7600 1100 7500 1100
Wire Wire Line
	7500 1100 7500 1700
Wire Wire Line
	7600 1500 7500 1500
Connection ~ 7500 1500
Wire Wire Line
	7600 1300 7500 1300
Connection ~ 7500 1300
$Comp
L GND #PWR015
U 1 1 57DCF1FC
P 7500 1700
F 0 "#PWR015" H 7500 1450 50  0001 C CNN
F 1 "GND" H 7500 1550 50  0000 C CNN
F 2 "" H 7500 1700 60  0000 C CNN
F 3 "" H 7500 1700 60  0000 C CNN
	1    7500 1700
	1    0    0    -1  
$EndComp
Wire Wire Line
	7600 1000 7400 1000
Wire Wire Line
	7600 1200 7400 1200
Wire Wire Line
	7600 1400 7400 1400
Wire Wire Line
	7600 1600 7400 1600
Text GLabel 7400 1000 0    47   Input ~ 0
SM1_1A
Text GLabel 7400 1200 0    47   Input ~ 0
SM1_2A
Text GLabel 7400 1400 0    47   Input ~ 0
SM1_1B
Text GLabel 7400 1600 0    47   Input ~ 0
SM1_2B
$Comp
L ULN2003A U2
U 1 1 57DD0E39
P 8250 3000
F 0 "U2" H 8250 3550 70  0000 C CNN
F 1 "ULN2003A" V 8250 3000 70  0000 C CNN
F 2 "Local:SOIC-16_3.9x9.9mm_Pitch1.27mm" H 8250 3000 60  0001 C CNN
F 3 "" H 8250 3000 60  0000 C CNN
	1    8250 3000
	1    0    0    -1  
$EndComp
$Comp
L 28BYJ-48 P3
U 1 1 57DD0E3F
P 10200 3000
F 0 "P3" H 10200 3550 60  0000 C CNN
F 1 "28BYJ-48" H 10200 2450 60  0000 C CNN
F 2 "Local:Pin_Header_Straight_1x05" H 9750 3000 60  0001 C CNN
F 3 "" H 9750 3000 60  0000 C CNN
	1    10200 3000
	1    0    0    -1  
$EndComp
$Comp
L D_Schottky D8
U 1 1 57DD0E45
P 9150 3400
F 0 "D8" H 9150 3500 50  0000 C CNN
F 1 "SS14" H 9150 3300 50  0000 C CNN
F 2 "Local:SMA_Standard" H 9150 3400 50  0001 C CNN
F 3 "" H 9150 3400 50  0000 C CNN
	1    9150 3400
	1    0    0    -1  
$EndComp
Wire Wire Line
	9000 3400 8900 3400
Wire Wire Line
	9300 3400 9500 3400
Wire Wire Line
	9400 3400 9400 2500
Connection ~ 9400 3400
$Comp
L +5V #PWR016
U 1 1 57DD0E4F
P 9400 2500
F 0 "#PWR016" H 9400 2350 50  0001 C CNN
F 1 "+5V" H 9400 2640 50  0000 C CNN
F 2 "" H 9400 2500 50  0000 C CNN
F 3 "" H 9400 2500 50  0000 C CNN
	1    9400 2500
	1    0    0    -1  
$EndComp
Wire Wire Line
	9500 2600 8900 2600
Wire Wire Line
	9500 2800 8900 2800
Wire Wire Line
	9500 3000 8900 3000
Wire Wire Line
	9500 3200 8900 3200
Wire Wire Line
	8900 2700 9000 2700
Wire Wire Line
	8900 2900 9000 2900
Wire Wire Line
	8900 3100 9000 3100
NoConn ~ 9000 2700
NoConn ~ 9000 2900
NoConn ~ 9000 3100
Wire Wire Line
	7600 2700 7500 2700
Wire Wire Line
	7500 2700 7500 3300
Wire Wire Line
	7600 3100 7500 3100
Connection ~ 7500 3100
Wire Wire Line
	7600 2900 7500 2900
Connection ~ 7500 2900
$Comp
L GND #PWR017
U 1 1 57DD0E65
P 7500 3300
F 0 "#PWR017" H 7500 3050 50  0001 C CNN
F 1 "GND" H 7500 3150 50  0000 C CNN
F 2 "" H 7500 3300 60  0000 C CNN
F 3 "" H 7500 3300 60  0000 C CNN
	1    7500 3300
	1    0    0    -1  
$EndComp
Wire Wire Line
	7600 2600 7400 2600
Wire Wire Line
	7600 2800 7400 2800
Wire Wire Line
	7600 3000 7400 3000
Wire Wire Line
	7600 3200 7400 3200
Text GLabel 7400 2600 0    47   Input ~ 0
SM2_1A
Text GLabel 7400 2800 0    47   Input ~ 0
SM2_2A
Text GLabel 7400 3000 0    47   Input ~ 0
SM2_1B
Text GLabel 7400 3200 0    47   Input ~ 0
SM2_2B
Connection ~ 4900 7000
Wire Wire Line
	4900 7400 4900 7500
Connection ~ 4600 7000
Wire Wire Line
	4900 6900 4900 7100
Wire Wire Line
	4600 7000 4900 7000
Wire Wire Line
	4600 7400 4600 7500
Wire Wire Line
	4600 6900 4600 7100
Wire Wire Line
	4600 6300 4600 6400
Text GLabel 4900 6900 1    47   Input ~ 0
BOX_LHT
$Comp
L GND #PWR018
U 1 1 5731AF89
P 4900 7500
F 0 "#PWR018" H 4900 7250 60  0001 C CNN
F 1 "GND" H 4900 7350 60  0000 C CNN
F 2 "" H 4900 7500 60  0000 C CNN
F 3 "" H 4900 7500 60  0000 C CNN
	1    4900 7500
	1    0    0    -1  
$EndComp
$Comp
L C C13
U 1 1 5731ADC5
P 4900 7250
F 0 "C13" H 4925 7350 50  0000 L CNN
F 1 "10n" H 4925 7150 50  0000 L CNN
F 2 "Local:C_0603" H 4938 7100 30  0001 C CNN
F 3 "" H 4900 7250 60  0000 C CNN
	1    4900 7250
	1    0    0    -1  
$EndComp
$Comp
L GND #PWR019
U 1 1 5731A48C
P 4600 7500
F 0 "#PWR019" H 4600 7250 50  0001 C CNN
F 1 "GND" H 4600 7350 50  0000 C CNN
F 2 "" H 4600 7500 60  0000 C CNN
F 3 "" H 4600 7500 60  0000 C CNN
	1    4600 7500
	1    0    0    -1  
$EndComp
$Comp
L R R19
U 1 1 5731A1EC
P 4600 7250
F 0 "R19" V 4680 7250 50  0000 C CNN
F 1 "10K" V 4607 7251 50  0000 C CNN
F 2 "Local:R_0603" V 4530 7250 30  0001 C CNN
F 3 "" H 4600 7250 30  0000 C CNN
	1    4600 7250
	-1   0    0    1   
$EndComp
$Comp
L Photores R14
U 1 1 57319F05
P 4600 6650
F 0 "R14" V 4680 6650 50  0000 C CNN
F 1 "1M" V 4810 6650 50  0000 C TNN
F 2 "Local:PHOTORES_5" V 4530 6650 30  0001 C CNN
F 3 "" H 4600 6650 30  0000 C CNN
	1    4600 6650
	-1   0    0    -1  
$EndComp
Text GLabel 3500 4900 0    47   Input ~ 0
SWDIO
Text GLabel 3500 5100 0    47   Input ~ 0
SWCLK
$Comp
L SWD P2
U 1 1 57DD3A84
P 4100 5050
F 0 "P2" H 4100 5350 50  0000 C CNN
F 1 "SWD" V 4300 5050 50  0000 C CNN
F 2 "Local:Pin_Header_Straight_1x04" H 4100 5050 60  0001 C CNN
F 3 "" H 4100 5050 60  0000 C CNN
	1    4100 5050
	1    0    0    -1  
$EndComp
$Comp
L GND #PWR020
U 1 1 57DD3A8B
P 3600 5300
F 0 "#PWR020" H 3600 5050 60  0001 C CNN
F 1 "GND" H 3600 5150 60  0000 C CNN
F 2 "" H 3600 5300 60  0000 C CNN
F 3 "" H 3600 5300 60  0000 C CNN
	1    3600 5300
	1    0    0    -1  
$EndComp
$Comp
L +3V3 #PWR021
U 1 1 57DD3A91
P 3600 4800
F 0 "#PWR021" H 3600 4650 60  0001 C CNN
F 1 "+3V3" H 3600 4940 60  0000 C CNN
F 2 "" H 3600 4800 60  0000 C CNN
F 3 "" H 3600 4800 60  0000 C CNN
	1    3600 4800
	1    0    0    -1  
$EndComp
Wire Wire Line
	3700 5000 3600 5000
Wire Wire Line
	3600 5000 3600 4800
Wire Wire Line
	3700 5200 3600 5200
Wire Wire Line
	3600 5200 3600 5300
Wire Wire Line
	3700 5100 3500 5100
Wire Wire Line
	3700 4900 3500 4900
Text Notes 3100 4550 0    60   ~ 0
Flash/Debug connector
$Comp
L R R25
U 1 1 57DD5379
P 10100 5750
F 0 "R25" V 10180 5750 50  0000 C CNN
F 1 "1K5" V 10100 5750 50  0000 C CNN
F 2 "Local:R_0603" H 10100 5750 60  0001 C CNN
F 3 "" H 10100 5750 60  0001 C CNN
	1    10100 5750
	-1   0    0    -1  
$EndComp
$Comp
L GND #PWR022
U 1 1 57DD5380
P 9000 4850
F 0 "#PWR022" H 9000 4850 30  0001 C CNN
F 1 "GND" H 9000 4780 30  0001 C CNN
F 2 "" H 9000 4850 60  0001 C CNN
F 3 "" H 9000 4850 60  0001 C CNN
	1    9000 4850
	1    0    0    -1  
$EndComp
Text Label 9000 4300 0    60   ~ 0
USBD-
$Comp
L ESD_PROT U1
U 1 1 57DD5387
P 9450 4750
F 0 "U1" H 9300 5000 60  0000 C CNN
F 1 "ESD_PROT" H 9750 5000 60  0000 C CNN
F 2 "Local:SOT-143" H 9450 4750 60  0001 C CNN
F 3 "" H 9450 4750 60  0001 C CNN
	1    9450 4750
	1    0    0    1   
$EndComp
$Comp
L USB_OTG J7
U 1 1 57DD538E
P 10700 5000
F 0 "J7" V 10400 5000 60  0000 C CNN
F 1 "USB-OTG" H 10700 5200 60  0000 C CNN
F 2 "Local:USB_Mini-B" H 10700 5000 60  0001 C CNN
F 3 "" H 10700 5000 60  0001 C CNN
	1    10700 5000
	0    1    1    0   
$EndComp
Text Label 9550 5200 0    60   ~ 0
USBD+
$Comp
L C C20
U 1 1 57DD5396
P 9200 5850
F 0 "C20" H 9250 5950 50  0000 L CNN
F 1 "47p" H 9250 5750 50  0000 L CNN
F 2 "Local:C_0603" H 9200 5850 60  0001 C CNN
F 3 "" H 9200 5850 60  0001 C CNN
	1    9200 5850
	-1   0    0    -1  
$EndComp
$Comp
L C C19
U 1 1 57DD53A3
P 8900 5850
F 0 "C19" H 8950 5950 50  0000 L CNN
F 1 "47p" H 8950 5750 50  0000 L CNN
F 2 "Local:C_0603" H 8900 5850 60  0001 C CNN
F 3 "" H 8900 5850 60  0001 C CNN
	1    8900 5850
	-1   0    0    -1  
$EndComp
$Comp
L R R24
U 1 1 57DD53AA
P 9850 5500
F 0 "R24" V 9930 5500 50  0000 C CNN
F 1 "22" V 9850 5500 50  0000 C CNN
F 2 "Local:R_0603" H 9850 5500 60  0001 C CNN
F 3 "" H 9850 5500 60  0001 C CNN
	1    9850 5500
	0    1    -1   0   
$EndComp
$Comp
L R R22
U 1 1 57DD53B1
P 8900 5250
F 0 "R22" V 8980 5250 50  0000 C CNN
F 1 "22" V 8900 5250 50  0000 C CNN
F 2 "Local:R_0603" H 8900 5250 60  0001 C CNN
F 3 "" H 8900 5250 60  0001 C CNN
	1    8900 5250
	-1   0    0    1   
$EndComp
Wire Wire Line
	10100 5500 10000 5500
Wire Wire Line
	8900 4300 10100 4300
Wire Wire Line
	8900 5100 8900 4300
Connection ~ 10100 5200
Wire Wire Line
	10100 5000 10100 5600
Connection ~ 9200 5500
Wire Wire Line
	9200 6100 9200 6000
Wire Wire Line
	8900 6100 9200 6100
Wire Wire Line
	8900 6000 8900 6100
Wire Wire Line
	9050 6200 9050 6100
Connection ~ 9050 6100
Wire Wire Line
	8900 5400 8900 5700
Wire Wire Line
	8800 5600 8900 5600
Connection ~ 8900 5600
Wire Wire Line
	10300 5200 10400 5200
Wire Wire Line
	9450 4400 9450 4300
Connection ~ 9450 4300
Wire Wire Line
	9450 5200 9450 5100
Wire Wire Line
	8800 5500 9700 5500
Wire Wire Line
	9200 5500 9200 5700
Wire Wire Line
	10100 4300 10100 4900
Wire Wire Line
	9450 5200 10100 5200
Wire Wire Line
	9000 4750 9100 4750
Wire Wire Line
	9000 4850 9000 4750
Wire Wire Line
	9800 4750 9900 4750
Wire Wire Line
	9900 4750 9900 4650
Text GLabel 8800 5500 0    47   Input ~ 0
USB_DP
Text GLabel 8800 5600 0    47   Input ~ 0
USB_DM
Text GLabel 9600 6000 0    47   Input ~ 0
USB_CON
Wire Wire Line
	10100 4900 10400 4900
Wire Wire Line
	10400 5000 10100 5000
Text Notes 8800 4250 0    60   ~ 0
ESD and current peak protection\n~ 
Wire Wire Line
	10400 4800 10300 4800
Wire Wire Line
	10300 4800 10300 4700
Wire Wire Line
	10100 5900 10100 6000
$Comp
L R R26
U 1 1 57DD53DB
P 10800 5750
F 0 "R26" V 10880 5750 50  0000 C CNN
F 1 "1M" V 10800 5750 50  0000 C CNN
F 2 "Local:R_0603" H 10800 5750 60  0001 C CNN
F 3 "" H 10800 5750 60  0001 C CNN
	1    10800 5750
	-1   0    0    -1  
$EndComp
$Comp
L C C17
U 1 1 57DD53E2
P 10500 5750
F 0 "C17" H 10550 5850 50  0000 L CNN
F 1 "10n" H 10550 5650 50  0000 L CNN
F 2 "Local:C_0603" H 10500 5750 60  0001 C CNN
F 3 "" H 10500 5750 60  0001 C CNN
	1    10500 5750
	-1   0    0    -1  
$EndComp
$Comp
L GND #PWR023
U 1 1 57DD53E9
P 10300 5300
F 0 "#PWR023" H 10300 5300 30  0001 C CNN
F 1 "GND" H 10300 5230 30  0001 C CNN
F 2 "" H 10300 5300 60  0001 C CNN
F 3 "" H 10300 5300 60  0001 C CNN
	1    10300 5300
	1    0    0    -1  
$EndComp
Wire Wire Line
	10300 5200 10300 5300
Wire Wire Line
	10800 5400 10800 5600
Wire Wire Line
	10800 5500 10500 5500
Wire Wire Line
	10500 5500 10500 5600
Connection ~ 10800 5500
$Comp
L GND #PWR024
U 1 1 57DD53F4
P 10800 6000
F 0 "#PWR024" H 10800 5750 50  0001 C CNN
F 1 "GND" H 10800 5850 50  0000 C CNN
F 2 "" H 10800 6000 60  0000 C CNN
F 3 "" H 10800 6000 60  0000 C CNN
	1    10800 6000
	1    0    0    -1  
$EndComp
$Comp
L GND #PWR025
U 1 1 57DD53FA
P 10500 6000
F 0 "#PWR025" H 10500 5750 50  0001 C CNN
F 1 "GND" H 10500 5850 50  0000 C CNN
F 2 "" H 10500 6000 60  0000 C CNN
F 3 "" H 10500 6000 60  0000 C CNN
	1    10500 6000
	1    0    0    -1  
$EndComp
Wire Wire Line
	10500 5900 10500 6000
Wire Wire Line
	10800 5900 10800 6000
Wire Wire Line
	10400 5100 10300 5100
NoConn ~ 10300 5100
Connection ~ 10100 5500
$Comp
L +5V #PWR026
U 1 1 57DD5405
P 9900 4650
F 0 "#PWR026" H 9900 4500 50  0001 C CNN
F 1 "+5V" H 9900 4790 50  0000 C CNN
F 2 "" H 9900 4650 50  0000 C CNN
F 3 "" H 9900 4650 50  0000 C CNN
	1    9900 4650
	1    0    0    -1  
$EndComp
$Comp
L +5V #PWR027
U 1 1 57DD540B
P 10300 4700
F 0 "#PWR027" H 10300 4550 50  0001 C CNN
F 1 "+5V" H 10300 4840 50  0000 C CNN
F 2 "" H 10300 4700 50  0000 C CNN
F 3 "" H 10300 4700 50  0000 C CNN
	1    10300 4700
	1    0    0    -1  
$EndComp
$Comp
L LD1117S33CTR U3
U 1 1 57DD78BE
P 6200 4950
F 0 "U3" H 6200 5200 40  0000 C CNN
F 1 "LD1117S33CTR" H 6200 5150 40  0000 C CNN
F 2 "Local:SOT-223" H 6200 5050 40  0001 C CNN
F 3 "" H 6200 4950 60  0000 C CNN
	1    6200 4950
	1    0    0    -1  
$EndComp
$Comp
L +5V #PWR028
U 1 1 57DD78C5
P 5700 4800
F 0 "#PWR028" H 5700 4650 50  0001 C CNN
F 1 "+5V" H 5700 4940 50  0000 C CNN
F 2 "" H 5700 4800 60  0000 C CNN
F 3 "" H 5700 4800 60  0000 C CNN
	1    5700 4800
	1    0    0    -1  
$EndComp
$Comp
L +3V3 #PWR029
U 1 1 57DD78CB
P 6900 4900
F 0 "#PWR029" H 6900 4750 50  0001 C CNN
F 1 "+3V3" H 6900 5040 50  0000 C CNN
F 2 "" H 6900 4900 60  0000 C CNN
F 3 "" H 6900 4900 60  0000 C CNN
	1    6900 4900
	1    0    0    -1  
$EndComp
$Comp
L GND #PWR030
U 1 1 57DD78D1
P 6200 5300
F 0 "#PWR030" H 6200 5050 50  0001 C CNN
F 1 "GND" H 6200 5150 50  0000 C CNN
F 2 "" H 6200 5300 60  0000 C CNN
F 3 "" H 6200 5300 60  0000 C CNN
	1    6200 5300
	1    0    0    -1  
$EndComp
$Comp
L CP C24
U 1 1 57DD78D7
P 6900 5150
F 0 "C24" H 6925 5250 50  0000 L CNN
F 1 "100u 6.3V" H 6700 5050 50  0000 L CNN
F 2 "Local:C_Radial_D7.5_L11.2_P2.5" H 6938 5000 30  0001 C CNN
F 3 "" H 6900 5150 60  0000 C CNN
	1    6900 5150
	1    0    0    -1  
$EndComp
$Comp
L GND #PWR031
U 1 1 57DD78DE
P 6900 5400
F 0 "#PWR031" H 6900 5150 50  0001 C CNN
F 1 "GND" H 6900 5250 50  0000 C CNN
F 2 "" H 6900 5400 60  0000 C CNN
F 3 "" H 6900 5400 60  0000 C CNN
	1    6900 5400
	1    0    0    -1  
$EndComp
$Comp
L C C25
U 1 1 57DD78E4
P 7200 5150
F 0 "C25" H 7225 5250 50  0000 L CNN
F 1 "100n" H 7225 5050 50  0000 L CNN
F 2 "Local:C_0603" H 7238 5000 30  0001 C CNN
F 3 "" H 7200 5150 60  0000 C CNN
	1    7200 5150
	1    0    0    -1  
$EndComp
$Comp
L C C26
U 1 1 57DD78EB
P 7500 5150
F 0 "C26" H 7525 5250 50  0000 L CNN
F 1 "100n" H 7525 5050 50  0000 L CNN
F 2 "Local:C_0603" H 7538 5000 30  0001 C CNN
F 3 "" H 7500 5150 60  0000 C CNN
	1    7500 5150
	1    0    0    -1  
$EndComp
$Comp
L C C27
U 1 1 57DD78F2
P 7800 5150
F 0 "C27" H 7825 5250 50  0000 L CNN
F 1 "100n" H 7825 5050 50  0000 L CNN
F 2 "Local:C_0603" H 7838 5000 30  0001 C CNN
F 3 "" H 7800 5150 60  0000 C CNN
	1    7800 5150
	1    0    0    -1  
$EndComp
$Comp
L C C28
U 1 1 57DD78F9
P 8100 5150
F 0 "C28" H 8125 5250 50  0000 L CNN
F 1 "100n" H 8125 5050 50  0000 L CNN
F 2 "Local:C_0603" H 8138 5000 30  0001 C CNN
F 3 "" H 8100 5150 60  0000 C CNN
	1    8100 5150
	1    0    0    -1  
$EndComp
$Comp
L GND #PWR032
U 1 1 57DD7900
P 7200 5400
F 0 "#PWR032" H 7200 5150 50  0001 C CNN
F 1 "GND" H 7200 5250 50  0000 C CNN
F 2 "" H 7200 5400 60  0000 C CNN
F 3 "" H 7200 5400 60  0000 C CNN
	1    7200 5400
	1    0    0    -1  
$EndComp
$Comp
L +3V3 #PWR033
U 1 1 57DD7906
P 7200 4900
F 0 "#PWR033" H 7200 4750 50  0001 C CNN
F 1 "+3V3" H 7200 5040 50  0000 C CNN
F 2 "" H 7200 4900 60  0000 C CNN
F 3 "" H 7200 4900 60  0000 C CNN
	1    7200 4900
	1    0    0    -1  
$EndComp
Wire Wire Line
	5800 4900 5700 4900
Wire Wire Line
	5700 4900 5700 4800
Wire Wire Line
	6200 5200 6200 5300
Wire Wire Line
	6900 5300 6900 5400
$Comp
L CONN_01X01 M1
U 1 1 57DD792C
P 7200 5900
F 0 "M1" H 7200 6000 50  0000 C CNN
F 1 "MNT" V 7300 5900 50  0000 C CNN
F 2 "Local:MountingHole_3mm" H 7200 5900 50  0001 C CNN
F 3 "" H 7200 5900 50  0000 C CNN
	1    7200 5900
	0    -1   -1   0   
$EndComp
$Comp
L CONN_01X01 M2
U 1 1 57DD7933
P 7500 5900
F 0 "M2" H 7500 6000 50  0000 C CNN
F 1 "MNT" V 7600 5900 50  0000 C CNN
F 2 "Local:MountingHole_3mm" H 7500 5900 50  0001 C CNN
F 3 "" H 7500 5900 50  0000 C CNN
	1    7500 5900
	0    -1   -1   0   
$EndComp
$Comp
L CONN_01X01 M3
U 1 1 57DD793A
P 7800 5900
F 0 "M3" H 7800 6000 50  0000 C CNN
F 1 "MNT" V 7900 5900 50  0000 C CNN
F 2 "Local:MountingHole_3mm" H 7800 5900 50  0001 C CNN
F 3 "" H 7800 5900 50  0000 C CNN
	1    7800 5900
	0    -1   -1   0   
$EndComp
$Comp
L CONN_01X01 M4
U 1 1 57DD7941
P 8100 5900
F 0 "M4" H 8100 6000 50  0000 C CNN
F 1 "MNT" V 8200 5900 50  0000 C CNN
F 2 "Local:MountingHole_3mm" H 8100 5900 50  0001 C CNN
F 3 "" H 8100 5900 50  0000 C CNN
	1    8100 5900
	0    -1   -1   0   
$EndComp
$Comp
L GND #PWR034
U 1 1 57DD7948
P 7200 6200
F 0 "#PWR034" H 7200 5950 50  0001 C CNN
F 1 "GND" H 7200 6050 50  0000 C CNN
F 2 "" H 7200 6200 60  0000 C CNN
F 3 "" H 7200 6200 60  0000 C CNN
	1    7200 6200
	1    0    0    -1  
$EndComp
$Comp
L GND #PWR035
U 1 1 57DD794E
P 7500 6200
F 0 "#PWR035" H 7500 5950 50  0001 C CNN
F 1 "GND" H 7500 6050 50  0000 C CNN
F 2 "" H 7500 6200 60  0000 C CNN
F 3 "" H 7500 6200 60  0000 C CNN
	1    7500 6200
	1    0    0    -1  
$EndComp
$Comp
L GND #PWR036
U 1 1 57DD7954
P 7800 6200
F 0 "#PWR036" H 7800 5950 50  0001 C CNN
F 1 "GND" H 7800 6050 50  0000 C CNN
F 2 "" H 7800 6200 60  0000 C CNN
F 3 "" H 7800 6200 60  0000 C CNN
	1    7800 6200
	1    0    0    -1  
$EndComp
$Comp
L GND #PWR037
U 1 1 57DD795A
P 8100 6200
F 0 "#PWR037" H 8100 5950 50  0001 C CNN
F 1 "GND" H 8100 6050 50  0000 C CNN
F 2 "" H 8100 6200 60  0000 C CNN
F 3 "" H 8100 6200 60  0000 C CNN
	1    8100 6200
	1    0    0    -1  
$EndComp
Wire Wire Line
	8100 6200 8100 6100
Wire Wire Line
	7800 6200 7800 6100
Wire Wire Line
	7500 6200 7500 6100
Wire Wire Line
	7200 6200 7200 6100
$Comp
L GND #PWR038
U 1 1 57DD7964
P 6500 6200
F 0 "#PWR038" H 6500 5950 50  0001 C CNN
F 1 "GND" H 6500 6050 50  0000 C CNN
F 2 "" H 6500 6200 60  0000 C CNN
F 3 "" H 6500 6200 60  0000 C CNN
	1    6500 6200
	1    0    0    -1  
$EndComp
$Comp
L C C2
U 1 1 57DD7974
P 6500 5950
F 0 "C2" H 6525 6050 50  0000 L CNN
F 1 "100n" H 6525 5850 50  0000 L CNN
F 2 "Local:C_0603" H 6538 5800 30  0001 C CNN
F 3 "" H 6500 5950 60  0000 C CNN
	1    6500 5950
	1    0    0    -1  
$EndComp
$Comp
L C C1
U 1 1 57DD797B
P 6200 5950
F 0 "C1" H 6225 6050 50  0000 L CNN
F 1 "100n" H 6225 5850 50  0000 L CNN
F 2 "Local:C_0603" H 6238 5800 30  0001 C CNN
F 3 "" H 6200 5950 60  0000 C CNN
	1    6200 5950
	1    0    0    -1  
$EndComp
$Comp
L +5V #PWR039
U 1 1 57DD7982
P 6200 5700
F 0 "#PWR039" H 6200 5550 50  0001 C CNN
F 1 "+5V" H 6200 5840 50  0000 C CNN
F 2 "" H 6200 5700 50  0000 C CNN
F 3 "" H 6200 5700 50  0000 C CNN
	1    6200 5700
	1    0    0    -1  
$EndComp
$Comp
L GND #PWR040
U 1 1 57DDA288
P 9050 6200
F 0 "#PWR040" H 9050 5950 50  0001 C CNN
F 1 "GND" H 9050 6050 50  0000 C CNN
F 2 "" H 9050 6200 60  0000 C CNN
F 3 "" H 9050 6200 60  0000 C CNN
	1    9050 6200
	1    0    0    -1  
$EndComp
$Comp
L CP C3
U 1 1 57DDAAED
P 5900 5950
F 0 "C3" H 5925 6050 50  0000 L CNN
F 1 "220u 10V" H 5700 5850 50  0000 L CNN
F 2 "Local:C_Radial_D7.5_L11.2_P2.5" H 5938 5800 30  0001 C CNN
F 3 "" H 5900 5950 60  0000 C CNN
	1    5900 5950
	1    0    0    -1  
$EndComp
$Comp
L GND #PWR041
U 1 1 57DDAF6D
P 5900 6200
F 0 "#PWR041" H 5900 5950 50  0001 C CNN
F 1 "GND" H 5900 6050 50  0000 C CNN
F 2 "" H 5900 6200 60  0000 C CNN
F 3 "" H 5900 6200 60  0000 C CNN
	1    5900 6200
	1    0    0    -1  
$EndComp
$Comp
L +5V #PWR042
U 1 1 57DDB01D
P 5900 5700
F 0 "#PWR042" H 5900 5550 50  0001 C CNN
F 1 "+5V" H 5900 5840 50  0000 C CNN
F 2 "" H 5900 5700 50  0000 C CNN
F 3 "" H 5900 5700 50  0000 C CNN
	1    5900 5700
	1    0    0    -1  
$EndComp
Wire Wire Line
	5900 5700 5900 5800
Wire Wire Line
	5900 6100 5900 6200
$Comp
L +5V #PWR043
U 1 1 57DDB706
P 6500 5700
F 0 "#PWR043" H 6500 5550 50  0001 C CNN
F 1 "+5V" H 6500 5840 50  0000 C CNN
F 2 "" H 6500 5700 50  0000 C CNN
F 3 "" H 6500 5700 50  0000 C CNN
	1    6500 5700
	1    0    0    -1  
$EndComp
Wire Wire Line
	6500 6100 6500 6200
Wire Wire Line
	6500 5800 6500 5700
Wire Wire Line
	6200 5800 6200 5700
$Comp
L GND #PWR044
U 1 1 57DDBCFF
P 6200 6200
F 0 "#PWR044" H 6200 5950 50  0001 C CNN
F 1 "GND" H 6200 6050 50  0000 C CNN
F 2 "" H 6200 6200 60  0000 C CNN
F 3 "" H 6200 6200 60  0000 C CNN
	1    6200 6200
	1    0    0    -1  
$EndComp
Wire Wire Line
	6200 6200 6200 6100
$Comp
L +3V3 #PWR045
U 1 1 57DDC359
P 7500 4900
F 0 "#PWR045" H 7500 4750 50  0001 C CNN
F 1 "+3V3" H 7500 5040 50  0000 C CNN
F 2 "" H 7500 4900 60  0000 C CNN
F 3 "" H 7500 4900 60  0000 C CNN
	1    7500 4900
	1    0    0    -1  
$EndComp
$Comp
L +3V3 #PWR046
U 1 1 57DDC409
P 7800 4900
F 0 "#PWR046" H 7800 4750 50  0001 C CNN
F 1 "+3V3" H 7800 5040 50  0000 C CNN
F 2 "" H 7800 4900 60  0000 C CNN
F 3 "" H 7800 4900 60  0000 C CNN
	1    7800 4900
	1    0    0    -1  
$EndComp
$Comp
L +3V3 #PWR047
U 1 1 57DDC4B9
P 8100 4900
F 0 "#PWR047" H 8100 4750 50  0001 C CNN
F 1 "+3V3" H 8100 5040 50  0000 C CNN
F 2 "" H 8100 4900 60  0000 C CNN
F 3 "" H 8100 4900 60  0000 C CNN
	1    8100 4900
	1    0    0    -1  
$EndComp
$Comp
L GND #PWR048
U 1 1 57DDC569
P 7500 5400
F 0 "#PWR048" H 7500 5150 50  0001 C CNN
F 1 "GND" H 7500 5250 50  0000 C CNN
F 2 "" H 7500 5400 60  0000 C CNN
F 3 "" H 7500 5400 60  0000 C CNN
	1    7500 5400
	1    0    0    -1  
$EndComp
$Comp
L GND #PWR049
U 1 1 57DDC619
P 7800 5400
F 0 "#PWR049" H 7800 5150 50  0001 C CNN
F 1 "GND" H 7800 5250 50  0000 C CNN
F 2 "" H 7800 5400 60  0000 C CNN
F 3 "" H 7800 5400 60  0000 C CNN
	1    7800 5400
	1    0    0    -1  
$EndComp
$Comp
L GND #PWR050
U 1 1 57DDC6C9
P 8100 5400
F 0 "#PWR050" H 8100 5150 50  0001 C CNN
F 1 "GND" H 8100 5250 50  0000 C CNN
F 2 "" H 8100 5400 60  0000 C CNN
F 3 "" H 8100 5400 60  0000 C CNN
	1    8100 5400
	1    0    0    -1  
$EndComp
Wire Wire Line
	8100 4900 8100 5000
Wire Wire Line
	8100 5300 8100 5400
Wire Wire Line
	7800 5400 7800 5300
Wire Wire Line
	7800 5000 7800 4900
Wire Wire Line
	7500 5000 7500 4900
Wire Wire Line
	7200 5000 7200 4900
Wire Wire Line
	7200 5400 7200 5300
Wire Wire Line
	7500 5400 7500 5300
Wire Wire Line
	6900 5000 6900 4900
Wire Wire Line
	6600 4900 6700 4900
Wire Wire Line
	6700 4900 6700 4800
$Comp
L +3V3 #PWR051
U 1 1 57DDE0AB
P 6700 4800
F 0 "#PWR051" H 6700 4650 50  0001 C CNN
F 1 "+3V3" H 6700 4940 50  0000 C CNN
F 2 "" H 6700 4800 60  0000 C CNN
F 3 "" H 6700 4800 60  0000 C CNN
	1    6700 4800
	1    0    0    -1  
$EndComp
$Comp
L CP C30
U 1 1 57DE245F
P 6200 1850
F 0 "C30" H 6225 1950 50  0000 L CNN
F 1 "10u" H 6250 1750 50  0000 L CNN
F 2 "Local:C_0805" H 6238 1700 30  0001 C CNN
F 3 "" H 6200 1850 60  0000 C CNN
	1    6200 1850
	1    0    0    -1  
$EndComp
$Comp
L GND #PWR052
U 1 1 57DE2465
P 6200 2100
F 0 "#PWR052" H 6200 1850 50  0001 C CNN
F 1 "GND" H 6200 1950 50  0000 C CNN
F 2 "" H 6200 2100 60  0000 C CNN
F 3 "" H 6200 2100 60  0000 C CNN
	1    6200 2100
	1    0    0    -1  
$EndComp
Wire Wire Line
	6200 2000 6200 2100
Wire Wire Line
	6200 1500 6200 1700
$Comp
L INDUCTOR_SMALL L1
U 1 1 57DE27CD
P 6200 1250
F 0 "L1" H 6200 1350 50  0000 C CNN
F 1 "470R" H 6200 1200 50  0000 C CNN
F 2 "Local:R_0603" H 6200 1250 50  0001 C CNN
F 3 "" H 6200 1250 50  0000 C CNN
	1    6200 1250
	0    -1   1    0   
$EndComp
Wire Wire Line
	6200 1000 6200 900 
$Comp
L +3V3 #PWR053
U 1 1 57DE2E16
P 6200 900
F 0 "#PWR053" H 6200 750 50  0001 C CNN
F 1 "+3V3" H 6200 1040 50  0000 C CNN
F 2 "" H 6200 900 60  0000 C CNN
F 3 "" H 6200 900 60  0000 C CNN
	1    6200 900 
	1    0    0    -1  
$EndComp
$Comp
L C C29
U 1 1 57DE36A5
P 6600 1850
F 0 "C29" H 6625 1950 50  0000 L CNN
F 1 "10n" H 6625 1750 50  0000 L CNN
F 2 "Local:C_0603" H 6638 1700 30  0001 C CNN
F 3 "" H 6600 1850 60  0000 C CNN
	1    6600 1850
	1    0    0    -1  
$EndComp
$Comp
L GND #PWR054
U 1 1 57DE3A31
P 6600 2100
F 0 "#PWR054" H 6600 1850 50  0001 C CNN
F 1 "GND" H 6600 1950 50  0000 C CNN
F 2 "" H 6600 2100 60  0000 C CNN
F 3 "" H 6600 2100 60  0000 C CNN
	1    6600 2100
	1    0    0    -1  
$EndComp
Wire Wire Line
	6600 2000 6600 2100
Wire Wire Line
	6600 1500 6600 1700
Wire Wire Line
	6600 1600 6200 1600
Connection ~ 6200 1600
Connection ~ 6600 1600
Text GLabel 6600 1500 1    47   Input ~ 0
3V3A
Text GLabel 4800 3100 2    47   Input ~ 0
SM1_1A
Text GLabel 4800 3000 2    47   Input ~ 0
SM1_2A
Text GLabel 4800 2900 2    47   Input ~ 0
SM1_1B
Text GLabel 4800 2800 2    47   Input ~ 0
SM1_2B
Text GLabel 4800 3500 2    47   Input ~ 0
SM2_1A
Text GLabel 4800 3400 2    47   Input ~ 0
SM2_2A
Text GLabel 4800 3300 2    47   Input ~ 0
SM2_1B
Text GLabel 4800 3200 2    47   Input ~ 0
SM2_2B
Text GLabel 1400 2800 0    47   Input ~ 0
SM1_2B
Text Notes 950  2850 0    60   ~ 0
RH
Text GLabel 4600 6300 1    47   Input ~ 0
3V3A
Text GLabel 4800 1500 2    47   Input ~ 0
LCD_SCLK
Text Notes 5200 1550 0    60   ~ 0
RH
Text GLabel 4800 2300 2    47   Input ~ 0
BOX_LHT
$Comp
L R R3
U 1 1 57DF65C7
P 9850 6000
F 0 "R3" V 9930 6000 50  0000 C CNN
F 1 "0R" V 9850 6000 50  0000 C CNN
F 2 "Local:R_0603" H 9850 6000 60  0001 C CNN
F 3 "" H 9850 6000 60  0001 C CNN
	1    9850 6000
	0    1    -1   0   
$EndComp
Wire Wire Line
	10100 6000 10000 6000
Wire Wire Line
	9700 6000 9600 6000
Wire Wire Line
	2600 5100 2700 5100
Connection ~ 2700 5200
Wire Wire Line
	2200 6950 2200 7200
$Comp
L GND #PWR?
U 1 1 57E0023F
P 2200 7200
F 0 "#PWR?" H 2200 6950 60  0001 C CNN
F 1 "GND" H 2200 7050 60  0000 C CNN
F 2 "" H 2200 7200 60  0000 C CNN
F 3 "" H 2200 7200 60  0000 C CNN
	1    2200 7200
	1    0    0    -1  
$EndComp
$EndSCHEMATC
